<svg width="70" height="67" viewBox="0 0 70 67" fill="none" xmlns="http://www.w3.org/2000/svg">
<path d="M35.0001 33.5C41.4459 33.5 46.6667 28.5029 46.6667 22.3333C46.6667 16.1637 41.4459 11.1667 35.0001 11.1667C28.5542 11.1667 23.3334 16.1637 23.3334 22.3333C23.3334 28.5029 28.5542 33.5 35.0001 33.5ZM35.0001 39.0833C27.2126 39.0833 11.6667 42.8242 11.6667 50.25V55.8333H58.3334V50.25C58.3334 42.8242 42.7876 39.0833 35.0001 39.0833Z" fill="#F2F2F2"/>
</svg>
